Point patterns analysis of IBA1 and CD68 cells for DKK1 ON and DKK1 Off animals after ischemia
…
Counts_long <- pivot_longer(
  Counts,
  cols = everything(),
  names_to = c("Tile", ".value"),
  names_pattern = "(M\\d+)\\.(.*)"
)

# Add 'Condition' column with repeating patterns
Counts_long <- Counts_long  %>%
  mutate(Condition = rep(c("Off", "ON", "Off", "ON"), times = c(6, 5, 6, 5)))

# View the updated dataframe
print(Counts_long)

# A tibble: 22 x 4
   Tile  tile   Freq Condition
   <chr> <fct> <int> <chr>    
 1 M1    Low    3560 Off      
 2 M10   Low    6829 Off      
 3 M11   Low    3836 Off      
 4 M2    Low    1431 Off      
 5 M3    Low    4606 Off      
 6 M4    Low    2007 Off      
 7 M5    Low    4263 ON       
 8 M6    Low    4294 ON       
 9 M7    Low    5990 ON       
10 M8    Low    4142 ON       
# i 12 more rows
…
